<?xml version="1.0" encoding="utf-8"?>
<!-- Generator: Adobe Illustrator 25.0.0, SVG Export Plug-In . SVG Version: 6.00 Build 0)  -->
<svg version="1.1" id="Layer_1" xmlns="http://www.w3.org/2000/svg" xmlns:xlink="http://www.w3.org/1999/xlink" x="0px" y="0px"
	 viewBox="0 0 150.11 22.84" style="enable-background:new 0 0 150.11 22.84;" xml:space="preserve">
<g>
	<path d="M12.51,4.47h4.42v13.27c0,3.37-1.68,5.05-5.05,5.05H4.3v-2.53h5.05c2.11,0,3.16-0.84,3.16-2.53H6.83
		c-3.37,0-5.05-1.68-5.05-5.05v-8.2L6.19,4.5v8.19c0,1.68,1.05,2.53,3.16,2.53h3.16V4.47z"/>
	<path d="M23.88,17.74c-3.37,0-5.05-1.68-5.05-5.05V9.52c0-3.37,1.68-5.05,5.05-5.05h5.69c2.95,0,4.42,1.68,4.42,5.05v3.16
		c0,3.37-1.68,5.05-5.05,5.05H23.88z M29.57,9.52c0-1.68-1.05-2.53-3.16-2.53c-2.11,0-3.16,0.84-3.16,2.53v3.16
		c0,1.68,1.05,2.53,3.16,2.53c2.11,0,3.16-0.84,3.16-2.53V9.52z"/>
	<path d="M46.63,4.47h4.42v8.21c0,3.37-1.68,5.05-5.05,5.05h-5.05c-3.37,0-5.05-1.68-5.05-5.05V4.47h4.42v8.21
		c0,1.68,1.05,2.53,3.16,2.53c2.11,0,3.16-0.84,3.16-2.53V4.47z"/>
	<path d="M62.42,9.52c3.79,0,5.69,1.26,5.69,3.79v0.63c0,2.53-1.9,3.79-5.69,3.79h-9.48v-2.53h8.84c1.26,0,1.9-0.42,1.9-1.26v-0.63
		c0-0.84-0.63-1.26-1.9-1.26h-3.16c-3.79,0-5.69-1.26-5.69-3.79c0-2.53,1.89-3.79,5.69-3.79h9.48V7h-8.84c-1.26,0-1.9,0.42-1.9,1.26
		c0,0.84,0.63,1.26,1.9,1.26H62.42z"/>
	<path d="M75.05,17.74c-3.37,0-5.05-1.68-5.05-5.05V9.52c0-3.37,1.68-5.05,5.05-5.05h5.69c2.95,0,4.42,1.68,4.42,5.05v3.16
		c0,3.37-1.68,5.05-5.05,5.05H75.05z M80.74,9.52c0-1.68-1.05-2.53-3.16-2.53c-2.11,0-3.16,0.84-3.16,2.53v3.16
		c0,1.68,1.05,2.53,3.16,2.53c2.11,0,3.16-0.84,3.16-2.53V9.52z"/>
	<path d="M93.38,8.26v9.48h-4.42V8.26h-1.89V5.73h1.89V5.1c0-3.37,1.68-5.05,5.05-5.05h2.53v2.53c-2.11,0-3.16,0.84-3.16,2.53v0.63
		h1.89v2.53H93.38z"/>
	<path d="M106.64,4.47V7h-1.89v5.69c0,1.68,1.05,2.53,3.16,2.53v2.53h-2.53c-3.37,0-5.05-1.68-5.05-5.05V7h-1.89V4.47h1.89V1.94
		h4.42v2.53H106.64z"/>
	<path d="M110.43,17.74c-0.42,0-0.63-0.21-0.63-0.63v-1.9c0-0.42,0.21-0.63,0.63-0.63h3.16c0.42,0,0.63,0.21,0.63,0.63v1.9
		c0,0.42-0.21,0.63-0.63,0.63H110.43z"/>
	<path d="M121.17,17.74l-5.69-13.27h4.42l3.79,9.48l3.79-9.48h4.42l-5.61,13.27H121.17z"/>
	<path d="M137.6,17.74h-4.42V4.47h10.11c3.37,0,5.05,1.68,5.05,5.05v8.21l-4.42-0.01v-8.2c0-1.68-1.05-2.53-3.16-2.53h-3.16V17.74z"
		/>
</g>
</svg>
