<?xml version="1.0" encoding="utf-8"?>
<!-- Generator: Adobe Illustrator 25.0.0, SVG Export Plug-In . SVG Version: 6.00 Build 0)  -->
<svg version="1.1" id="Layer_1" xmlns="http://www.w3.org/2000/svg" xmlns:xlink="http://www.w3.org/1999/xlink" x="0px" y="0px"
	 viewBox="0 0 183.95 28.54" style="enable-background:new 0 0 183.95 28.54;" xml:space="preserve">
<style type="text/css">
	.st0{fill:#FFFFFF;}
</style>
<g>
	<path class="st0" d="M14.16,5.62h5.5v16.51c0,4.19-2.1,6.29-6.29,6.29H3.94v-3.14h6.29c2.62,0,3.93-1.05,3.93-3.14H7.08
		c-4.19,0-6.29-2.1-6.29-6.29V5.64l5.5,0.02v10.19c0,2.1,1.31,3.14,3.93,3.14h3.93V5.62z"/>
	<path class="st0" d="M28.3,22.13c-4.19,0-6.29-2.1-6.29-6.29v-3.93c0-4.19,2.1-6.29,6.29-6.29h7.07c3.67,0,5.5,2.1,5.5,6.29v3.93
		c0,4.19-2.1,6.29-6.29,6.29H28.3z M35.38,11.91c0-2.1-1.31-3.14-3.93-3.14c-2.62,0-3.93,1.05-3.93,3.14v3.93
		c0,2.1,1.31,3.14,3.93,3.14c2.62,0,3.93-1.05,3.93-3.14V11.91z"/>
	<path class="st0" d="M56.6,5.62h5.5v10.22c0,4.19-2.1,6.29-6.29,6.29h-6.29c-4.19,0-6.29-2.1-6.29-6.29V5.62h5.5v10.22
		c0,2.1,1.31,3.14,3.93,3.14c2.62,0,3.93-1.05,3.93-3.14V5.62z"/>
	<path class="st0" d="M76.25,11.91c4.72,0,7.07,1.57,7.07,4.72v0.79c0,3.14-2.36,4.72-7.07,4.72H64.46v-3.14h11
		c1.57,0,2.36-0.52,2.36-1.57v-0.79c0-1.05-0.79-1.57-2.36-1.57h-3.93c-4.72,0-7.07-1.57-7.07-4.72c0-3.14,2.36-4.72,7.07-4.72
		h11.79v3.14h-11c-1.57,0-2.36,0.52-2.36,1.57c0,1.05,0.79,1.57,2.36,1.57H76.25z"/>
	<path class="st0" d="M91.97,22.13c-4.19,0-6.29-2.1-6.29-6.29v-3.93c0-4.19,2.1-6.29,6.29-6.29h7.07c3.67,0,5.5,2.1,5.5,6.29v3.93
		c0,4.19-2.1,6.29-6.29,6.29H91.97z M99.05,11.91c0-2.1-1.31-3.14-3.93-3.14c-2.62,0-3.93,1.05-3.93,3.14v3.93
		c0,2.1,1.31,3.14,3.93,3.14c2.62,0,3.93-1.05,3.93-3.14V11.91z"/>
	<path class="st0" d="M114.77,10.34v11.79h-5.5V10.34h-2.36V7.2h2.36V6.41c0-4.19,2.1-6.29,6.29-6.29h3.14v3.14
		c-2.62,0-3.93,1.05-3.93,3.14V7.2h2.36v3.14H114.77z"/>
	<path class="st0" d="M131.28,5.62v3.14h-2.36v7.07c0,2.1,1.31,3.14,3.93,3.14v3.14h-3.14c-4.19,0-6.29-2.1-6.29-6.29V8.77h-2.36
		V5.62h2.36V2.48h5.5v3.14H131.28z"/>
	<path class="st0" d="M135.99,22.13c-0.52,0-0.79-0.26-0.79-0.79v-2.36c0-0.52,0.26-0.79,0.79-0.79h3.93c0.52,0,0.79,0.26,0.79,0.79
		v2.36c0,0.52-0.26,0.79-0.79,0.79H135.99z"/>
	<path class="st0" d="M149.36,22.13l-7.07-16.51h5.5l4.72,11.79l4.72-11.79h5.5l-6.98,16.51H149.36z"/>
	<path class="st0" d="M169.79,22.13h-5.5V5.62h12.58c4.19,0,6.29,2.1,6.29,6.29v10.22l-5.5-0.02v-10.2c0-2.1-1.31-3.14-3.93-3.14
		h-3.93V22.13z"/>
</g>
</svg>
